Problem jucs
  ([{a}{b}{b}{a}] U [{b}{a}{a}{b}])
;;  ([{c}{a}{a,c}] U [{c}{a}{a,c}])
  [{d}{b}{d}{b}]
;;  ([{a,d}{d}{a}] U [{d}{a,d}{a}])
;;  ([{c}{b}{b}{c}] U [{b}{c}{c}{b}])
;;  ([{c,d}{d}{c}] U [{d}{c,d}{c}])
